<?xml version="1.0" encoding="UTF-8"?>
<svg width="100px" height="80px" viewBox="0 0 100 80" version="1.1" xmlns="http://www.w3.org/2000/svg" xmlns:xlink="http://www.w3.org/1999/xlink">
    <!-- Generator: Sketch 51.3 (57544) - http://www.bohemiancoding.com/sketch -->
    <title>Group 4</title>
    <desc>Created with Sketch.</desc>
    <defs>
        <polygon id="path-1" points="0 0 189.980172 0 189.980172 162.930685 0 162.930685"></polygon>
    </defs>
    <g id="Page-1" stroke="none" stroke-width="1" fill="none" fill-rule="evenodd" opacity="0.3" transform="scale(0.56) rotate(180) translate(-190, -140)">
        <g id="1_IAI_siteV2_XL" transform="translate(-134.000000, -616.000000)">
            <g id="Group-4" transform="translate(229.500000, 683.755145) rotate(-270.000000) translate(-229.500000, -683.755145) translate(147.500000, 588.255145)">
                <g id="Group-10" transform="translate(81.782361, 95.180633) rotate(-270.000000) translate(-81.782361, -95.180633) translate(-13.217639, 13.680633)">
                    <g id="Group-3">
                        <mask id="mask-2" fill="white">
                            <use xlink:href="#path-1"></use>
                        </mask>
                        <g id="Clip-2"></g>
                        <path d="M21.740065,33.1640343 C21.740065,29.04906 25.1063492,25.7023546 29.2418681,25.7023546 C33.377387,25.7023546 36.7436711,29.04906 36.7436711,33.1640343 C36.7436711,37.2755005 33.377387,40.6222059 29.2418681,40.6222059 C25.1063492,40.6222059 21.740065,37.2755005 21.740065,33.1640343 Z M29.2418681,74.1874863 C33.377387,74.1874863 36.7436711,77.5341917 36.7436711,81.649166 C36.7436711,85.7606322 33.377387,89.1073376 29.2418681,89.1073376 C25.1063492,89.1073376 21.740065,85.7606322 21.740065,81.649166 C21.740065,77.5341917 25.1063492,74.1874863 29.2418681,74.1874863 Z M70.508842,81.649166 C70.508842,77.5341917 73.8751262,74.1874863 78.0106451,74.1874863 C82.1496926,74.1874863 85.5124481,77.5341917 85.5124481,81.649166 C85.5124481,85.7606322 82.1496926,89.1073376 78.0106451,89.1073376 C73.8751262,89.1073376 70.508842,85.7606322 70.508842,81.649166 Z M78.0106451,122.676126 C82.1496926,122.676126 85.5124481,126.022831 85.5124481,130.134298 C85.5124481,134.242256 82.1496926,137.592469 78.0106451,137.592469 C73.8751262,137.592469 70.508842,134.242256 70.508842,130.134298 C70.508842,126.022831 73.8751262,122.676126 78.0106451,122.676126 Z M134.281225,130.134298 C134.281225,134.242256 130.914941,137.592469 126.779422,137.592469 C122.640375,137.592469 119.27409,134.242256 119.27409,130.134298 C119.27409,126.022831 122.640375,122.676126 126.779422,122.676126 C130.914941,122.676126 134.281225,126.022831 134.281225,130.134298 Z M126.779422,89.1073376 C122.640375,89.1073376 119.27409,85.7606322 119.27409,81.649166 C119.27409,77.5341917 122.640375,74.1874863 126.779422,74.1874863 C130.914941,74.1874863 134.281225,77.5341917 134.281225,81.649166 C134.281225,85.7606322 130.914941,89.1073376 126.779422,89.1073376 Z M189.980172,79.8986356 L189.980172,76.3905586 L144.055446,76.3905586 C141.751271,68.9394031 134.701129,63.6667635 126.779422,63.6667635 C116.804071,63.6667635 108.688291,71.7353405 108.688291,81.652674 C108.688291,89.5283068 113.991777,96.5339365 121.486522,98.8282188 L121.486522,112.965769 C115.77372,114.709283 111.257112,119.199622 109.506926,124.879198 L95.2831408,124.879198 C93.5258981,119.199622 89.0128191,114.709283 83.3035447,112.965769 L83.3035447,98.8247107 C90.7982905,96.5269203 96.0982474,89.5177826 96.0982474,81.649166 C96.0982474,71.7318324 87.9859966,63.6632554 78.0106451,63.6632554 C70.0924673,63.6632554 63.0458536,68.9358951 60.7346208,76.3870505 L46.5143638,76.3870505 C44.7606497,70.710982 40.2440421,66.2206435 34.5347677,64.4736212 L34.5347677,50.3395791 C42.0295135,48.0417887 47.3294703,41.0326509 47.3294703,33.1605262 C47.3294703,23.2431927 39.2172195,15.1746157 29.2418681,15.1746157 C19.2665166,15.1746157 11.1542658,23.2431927 11.1542658,33.1605262 C11.1542658,41.0326509 16.4542226,48.0417887 23.9489685,50.3395791 L23.9489685,64.4736212 C16.4542226,66.7679035 11.1542658,73.7770413 11.1542658,81.649166 C11.1542658,91.5629914 19.2665166,99.6315684 29.2418681,99.6315684 C37.1635745,99.6315684 44.2101882,94.3589288 46.5143638,86.9112814 L60.7346208,86.9112814 C62.4918634,92.5873499 67.0084711,97.0811965 72.7142169,98.8247107 L72.7142169,112.962261 C65.2229996,115.256543 59.9195142,122.262173 59.9195142,130.137806 C59.9195142,140.051631 68.0352936,148.120208 78.0071165,148.120208 C85.9252943,148.120208 92.971908,142.847569 95.2796122,135.399921 L109.503398,135.399921 C111.807573,142.847569 118.854187,148.120208 126.775894,148.120208 C136.751245,148.120208 144.863496,140.051631 144.863496,130.137806 C144.863496,122.265681 139.563539,115.256543 132.068793,112.962261 L132.068793,98.8247107 C137.781596,97.0811965 142.294675,92.5873499 144.048389,86.9112814 L189.980172,86.9112814 L189.980172,83.4032044 L189.980172,79.8986356 Z" id="Fill-1" fill="#CBBFB2" mask="url(#mask-2)"></path>
                    </g>
                    <path d="M70.2647639,33.2999097 C70.2647639,29.2268642 73.5754266,25.9142594 77.6426139,25.9142594 C81.7098012,25.9142594 85.0204639,29.2268642 85.0204639,33.2999097 C85.0204639,37.3694829 81.7098012,40.6820877 77.6426139,40.6820877 C73.5754266,40.6820877 70.2647639,37.3694829 70.2647639,33.2999097 M77.6426139,51.0990839 C87.4531417,51.0990839 95.431353,43.1127201 95.431353,33.2999097 C95.431353,23.4836269 87.4531417,15.4972631 77.6426139,15.4972631 C67.8320862,15.4972631 59.8538749,23.4836269 59.8538749,33.2999097 C59.8538749,43.1127201 67.8320862,51.0990839 77.6426139,51.0990839" id="Fill-4" fill="#CBBFB2"></path>
                    <path d="M118.816542,33.2999097 C118.816542,29.2268642 122.126882,25.9142594 126.197143,25.9142594 C130.263933,25.9142594 133.574273,29.2268642 133.574273,33.2999097 C133.574273,37.3694829 130.263933,40.6820877 126.197143,40.6820877 C122.126882,40.6820877 118.816542,37.3694829 118.816542,33.2999097 M126.197143,51.0990839 C136.006713,51.0990839 143.984147,43.1127201 143.984147,33.2999097 C143.984147,23.4836269 136.006713,15.4972631 126.197143,15.4972631 C116.387572,15.4972631 108.406668,23.4836269 108.406668,33.2999097 C108.406668,43.1127201 116.387572,51.0990839 126.197143,51.0990839" id="Fill-6" fill="#CBBFB2"></path>
                    <path d="M36.4676703,130.470202 C36.4676703,134.540172 33.1570076,137.8531 29.0898203,137.8531 C25.022633,137.8531 21.7119703,134.540172 21.7119703,130.470202 C21.7119703,126.400232 25.022633,123.087304 29.0898203,123.087304 C33.1570076,123.087304 36.4676703,126.400232 36.4676703,130.470202 M29.0898203,112.669291 C19.2792926,112.669291 11.3010813,120.656434 11.3010813,130.470202 C11.3010813,140.283969 19.2792926,148.271112 29.0898203,148.271112 C38.9003481,148.271112 46.8785593,140.283969 46.8785593,130.470202 C46.8785593,120.656434 38.9003481,112.669291 29.0898203,112.669291" id="Fill-8" fill="#CBBFB2"></path>
                </g>
            </g>
        </g>
    </g>
</svg>