<?xml version="1.0" encoding="UTF-8"?>
<svg width="232px" height="80px" viewBox="0 0 232 80" version="1.1" xmlns="http://www.w3.org/2000/svg" xmlns:xlink="http://www.w3.org/1999/xlink">
    <!-- Generator: Sketch 51.3 (57544) - http://www.bohemiancoding.com/sketch -->
    <title>logo_V2</title>
    <desc>Created with Sketch.</desc>
    <defs>
        <polygon id="path-1" points="0 80 231.295432 80 231.295432 0 0 0"></polygon>
    </defs>
    <g id="Page-1" stroke="none" stroke-width="1" fill="none" fill-rule="evenodd">
        <g id="1_IAI_siteV2_XL" transform="translate(-233.000000, -77.000000)">
            <g id="logo_V2" transform="translate(233.000000, 77.000000)">
                <path d="M222.040335,43.815554 C219.851193,43.815554 218.069638,42.0261528 218.069638,39.8260151 C218.069638,37.6258775 219.851193,35.8353751 222.040335,35.8353751 C224.229477,35.8353751 226.011031,37.6258775 226.011031,39.8260151 C226.011031,42.0261528 224.229477,43.815554 222.040335,43.815554 Z M191.279489,57.3445286 C191.279489,59.5699931 189.478213,61.3803166 187.26387,61.3803166 L149.876431,61.3803166 C147.662089,61.3803166 145.859717,59.5699931 145.859717,57.3445286 L145.859717,22.3163111 C145.859717,20.0919477 147.662089,18.2816242 149.876431,18.2816242 L187.26387,18.2816242 C189.478213,18.2816242 191.279489,20.0919477 191.279489,22.3163111 L191.279489,57.3445286 Z M214.224943,70.6995182 C214.224943,72.8996559 212.443389,74.6890571 210.254247,74.6890571 C208.065105,74.6890571 206.28355,72.8996559 206.28355,70.6995182 C206.28355,68.4993806 208.065105,66.7088782 210.254247,66.7088782 C212.443389,66.7088782 214.224943,68.4993806 214.224943,70.6995182 Z M206.28355,9.30158293 C206.28355,7.10144529 208.065105,5.31094288 210.254247,5.31094288 C212.443389,5.31094288 214.224943,7.10144529 214.224943,9.30158293 C214.224943,11.5017206 212.443389,13.2911218 210.254247,13.2911218 C208.065105,13.2911218 206.28355,11.5017206 206.28355,9.30158293 Z M222.040335,30.5244322 C217.854888,30.5244322 214.314788,33.3313145 213.174199,37.1699931 L196.564986,37.1699931 L196.564986,30.3438403 L210.254247,30.3438403 C211.713675,30.3438403 212.896995,29.1545767 212.896995,27.6878183 L212.896995,18.2122505 C216.715394,17.0659326 219.509345,13.5069511 219.509345,9.30158293 C219.509345,4.1723331 215.357863,0 210.254247,0 C205.150631,0 200.999149,4.1723331 200.999149,9.30158293 C200.999149,13.5069511 203.7931,17.0659326 207.612594,18.2122505 L207.612594,25.0317963 L196.564986,25.0317963 L196.564986,22.3163111 C196.564986,17.1628355 192.392687,12.9695802 187.26387,12.9695802 L149.876431,12.9695802 C144.747615,12.9695802 140.575316,17.1628355 140.575316,22.3163111 L140.575316,57.3445286 C140.575316,62.4991053 144.747615,66.6912595 149.876431,66.6912595 L187.26387,66.6912595 C192.392687,66.6912595 196.564986,62.4991053 196.564986,57.3445286 L196.564986,54.9682037 L207.612594,54.9682037 L207.612594,61.7888507 C203.7931,62.9351686 200.999149,66.49415 200.999149,70.6995182 C200.999149,75.8276669 205.150631,80 210.254247,80 C215.357863,80 219.509345,75.8276669 219.509345,70.6995182 C219.509345,66.49415 216.715394,62.9351686 212.896995,61.7888507 L212.896995,52.3132829 C212.896995,50.8465244 211.713675,49.6572608 210.254247,49.6572608 L196.564986,49.6572608 L196.564986,42.480936 L213.174199,42.480936 C214.314788,46.3185134 217.854888,49.1264969 222.040335,49.1264969 C227.143951,49.1264969 231.295432,44.9541638 231.295432,39.8260151 C231.295432,34.6967653 227.143951,30.5244322 222.040335,30.5244322 Z" id="Fill-1" fill="#FFFFFF"></path>
                <path d="M0,45.2601616 L0,34.0364945 C0,32.2605839 0.333097765,31.0419078 0.999293296,30.3804661 C1.66548883,29.7190244 2.89580154,29.3877551 4.69238046,29.3877551 L13.0767736,29.3877551 L13.0767736,33.7809125 L5.91302259,33.7809125 L5.52512487,33.7809125 L5.30377603,33.7809125 C4.74718041,33.8379523 4.41408265,34.1407017 4.30340823,34.6880639 L4.30340823,35.1981309 L4.30340823,43.6169781 C4.30340823,44.2970674 4.39044345,44.7643545 4.56666291,45.0188396 C4.74288238,45.2755184 5.08135269,45.4027609 5.58099933,45.4027609 L5.94203433,45.4027609 L13.0767736,45.4027609 L13.0767736,49.7959184 L4.05304765,49.7959184 C3.57166765,49.7959184 3.072021,49.6917111 2.5541077,49.4843936 C0.851011065,48.8032074 0,47.3958613 0,45.2601616" id="Fill-3" fill="#FFFFFF"></path>
                <mask id="mask-2" fill="white">
                    <use xlink:href="#path-1"></use>
                </mask>
                <g id="Clip-6"></g>
                <path d="M0.817298348,44.5789097 L0.817298348,33.6872215 C0.817298348,31.9636124 1.15169243,30.7809409 1.82049062,30.1391716 C2.48928882,29.4974022 3.72468917,29.1765224 5.52672875,29.1765224 L13.9423973,29.1765224 L13.9423973,33.4396832 L6.1397907,33.4396832 C5.58245887,33.494692 5.24806479,33.7880678 5.13659842,34.3198196 L5.13659842,42.9836625 C5.13659842,43.6437681 5.2248413,44.0975839 5.40132972,44.3451235 C5.57781813,44.5926631 5.91685657,44.716431 6.41845522,44.716431 L13.9423973,44.716431 L13.9423973,48.9795918 L4.88580035,48.9795918 C4.40277943,48.9795918 3.90118831,48.8787439 3.38101194,48.6770449 C1.671861,48.0169393 0.817298348,46.6509079 0.817298348,44.5789097 Z M16.143847,48.9795918 L16.143847,28.5714286 L19.9615509,28.5714286 L19.9615509,48.9795918 L16.143847,48.9795918 Z M22.5809974,45.6240717 L22.5809974,42.5986028 C22.5809974,41.4984268 22.9061028,40.6366351 23.5563233,40.013202 C24.2065437,39.389769 25.10755,39.0780571 26.2593691,39.0780571 L31.3589298,39.0780571 L31.3310634,38.2804335 C31.3310634,37.9687169 31.0616904,37.776189 30.5229363,37.7028439 L22.6367303,37.7028439 L22.6367303,34.1272897 L31.3031969,34.1272897 L31.9719918,34.1822983 C32.9380336,34.2923159 33.6625541,34.5581877 34.145575,34.9799219 C34.628596,35.401656 34.9444126,36.0617517 35.0930344,36.9602288 C35.1301899,37.106919 35.1487673,37.3269509 35.1487673,37.6203312 L35.1487673,45.4865504 C35.1487673,45.798267 35.1301899,46.0274669 35.0930344,46.174157 C34.9258349,47.0176253 34.5357084,47.696057 33.9226434,48.2094725 C33.3095784,48.7228879 32.5664805,48.9795918 31.6933273,48.9795918 L26.4544343,48.9795918 C24.2622624,48.9795918 22.9897072,48.0811282 22.6367303,46.284174 C22.6553081,46.1374839 22.6553081,45.999964 22.6367303,45.8716101 C22.6367303,45.8166013 22.6181529,45.7340893 22.5809974,45.6240717 Z M26.5937665,44.9639694 C26.7052329,45.1289958 26.9002961,45.2390118 27.178962,45.2940206 L27.3740272,45.3215248 L30.3557376,45.3215248 C30.6901367,45.3215248 30.9362879,45.2298449 31.0941985,45.0464822 C31.2521092,44.8631195 31.3310634,44.6705916 31.3310634,44.4688927 L31.3310634,43.4237307 C31.3310634,43.1670229 31.3124859,43.011167 31.2753305,42.9561582 C31.238175,42.8828131 31.0988442,42.7911332 30.8573337,42.6811156 C30.7644451,42.6077705 30.5879593,42.5710985 30.3278711,42.5710985 L27.1510956,42.5710985 L26.9838969,42.5986028 C26.6494978,42.6536116 26.4544345,42.8919795 26.3987014,43.3137136 L26.3987014,44.4688927 C26.3987014,44.6522553 26.4637224,44.8172793 26.5937665,44.9639694 Z M37.5731487,48.9795918 L37.5731487,45.2115078 L44.372563,45.2115078 C44.7998507,45.1381627 45.0506463,44.9456348 45.1249572,44.6339183 L45.1528236,44.4688927 L45.1528236,44.1663458 L45.0692243,43.8362946 C44.9391802,43.6162594 44.7534057,43.4787395 44.5118952,43.4237307 L41.2236539,43.4237307 C40.6105889,43.4237307 40.0625541,43.2862107 39.5795332,43.0111667 C38.29767,42.3143886 37.656748,41.397589 37.656748,40.2607404 L37.656748,37.4828098 C37.656748,37.152757 37.6939029,36.8685492 37.7682138,36.6301777 C38.1769238,34.9615774 39.3751693,34.1272897 41.3629861,34.1272897 L49.0541269,34.1272897 L49.0819934,37.8953738 L42.1989797,37.8953738 L41.8367158,38.0053908 L41.7531165,38.0879036 C41.5301837,38.2896026 41.418719,38.4546265 41.418719,38.5829804 L41.418719,38.9405358 C41.4372968,38.9955446 41.4465855,39.0413846 41.4465855,39.0780571 C41.4651632,39.1697384 41.5255399,39.2751704 41.6277174,39.3943561 C41.7298949,39.5135419 41.9667574,39.6006378 42.338312,39.6556466 L45.7380191,39.6556466 C46.6854832,39.6556466 47.4750248,40.0315345 48.1066675,40.7833214 C48.7383103,41.5351084 49.0541269,42.2593801 49.0541269,42.9561582 L48.998394,45.6790803 C48.998394,46.2841771 48.7986864,46.8755128 48.3992653,47.4531052 C47.9998441,48.0306976 47.5864959,48.4295055 47.1592082,48.6495407 C46.7319204,48.8695759 46.1560195,48.9795918 45.4314881,48.9795918 L37.5731487,48.9795918 Z M51.3113095,48.9795918 L51.3113095,45.2115078 L58.1107238,45.2115078 C58.5380116,45.1381627 58.7888071,44.9456348 58.863118,44.6339183 L58.8909845,44.4688927 L58.8909845,44.1663458 L58.8073851,43.8362946 C58.677341,43.6162594 58.4915666,43.4787395 58.2500561,43.4237307 L54.9618148,43.4237307 C54.3487497,43.4237307 53.800715,43.2862107 53.3176941,43.0111667 C52.0358309,42.3143886 51.3949089,41.397589 51.3949089,40.2607404 L51.3949089,37.4828098 C51.3949089,37.152757 51.4320638,36.8685492 51.5063747,36.6301777 C51.9150847,34.9615774 53.1133302,34.1272897 55.101147,34.1272897 L62.7922878,34.1272897 L62.8201542,37.8953738 L55.9371406,37.8953738 L55.5748767,38.0053908 L55.4912773,38.0879036 C55.2683446,38.2896026 55.1568799,38.4546265 55.1568799,38.5829804 L55.1568799,38.9405358 C55.1754576,38.9955446 55.1847464,39.0413846 55.1847464,39.0780571 C55.2033241,39.1697384 55.2637008,39.2751704 55.3658783,39.3943561 C55.4680558,39.5135419 55.7049183,39.6006378 56.0764728,39.6556466 L59.47618,39.6556466 C60.4236441,39.6556466 61.2131857,40.0315345 61.8448284,40.7833214 C62.4764712,41.5351084 62.7922878,42.2593801 62.7922878,42.9561582 L62.7365549,45.6790803 C62.7365549,46.2841771 62.5368473,46.8755128 62.1374262,47.4531052 C61.738005,48.0306976 61.3246568,48.4295055 60.897369,48.6495407 C60.4700813,48.8695759 59.8941804,48.9795918 59.169649,48.9795918 L51.3113095,48.9795918 Z M64.6314736,36.6851862 L66.0247962,33.7697343 C65.1144876,33.3113276 64.6593401,32.5778879 64.6593401,31.5693933 C64.6593401,30.8726151 64.9054913,30.2996154 65.3978011,29.8503768 C65.8901108,29.4011383 66.4427899,29.1765224 67.055855,29.1765224 C67.7060754,29.1765224 68.2726876,29.4148903 68.7557085,29.8916332 C69.2387295,30.3683761 69.4802363,30.9642959 69.4802363,31.6794103 C69.4802363,31.9544543 69.4616588,32.1561502 69.4245034,32.2845041 L69.1737053,32.9446064 L67.3623859,36.6851862 L64.6314736,36.6851862 Z M71.4866208,44.5789097 L71.4866208,33.6872215 C71.4866208,31.9636124 71.8210149,30.7809409 72.4898131,30.1391716 C73.1586113,29.4974022 74.3940117,29.1765224 76.1960512,29.1765224 L84.6117198,29.1765224 L84.6117198,33.4396832 L76.8091132,33.4396832 C76.2517814,33.494692 75.9173873,33.7880678 75.8059209,34.3198196 L75.8059209,42.9836625 C75.8059209,43.6437681 75.8941638,44.0975839 76.0706522,44.3451235 C76.2471406,44.5926631 76.5861791,44.716431 77.0877777,44.716431 L84.6117198,44.716431 L84.6117198,48.9795918 L75.5551228,48.9795918 C75.0721019,48.9795918 74.5705108,48.8787439 74.0503344,48.6770449 C72.3411835,48.0169393 71.4866208,46.6509079 71.4866208,44.5789097 Z M86.8131695,45.651576 L86.8131695,37.4553056 L86.8967688,36.7952033 C87.2497457,35.0165853 88.485146,34.1272897 90.603007,34.1272897 L95.7304342,34.1272897 C97.8297174,34.1272897 99.0744065,35.0165853 99.4645387,36.7952033 C99.5016942,36.9418934 99.5202716,37.1619253 99.5202716,37.4553056 L99.5202716,45.651576 C99.5202716,45.9449563 99.5016942,46.1649882 99.4645387,46.3116783 C99.0744065,48.0902962 97.8297174,48.9795918 95.7304342,48.9795918 L90.603007,48.9795918 C88.485146,48.9795918 87.2497457,48.0902962 86.8967688,46.3116783 L86.8131695,45.651576 Z M90.9652708,44.9639694 C91.1696259,45.1289958 91.3461116,45.2115078 91.4947334,45.2115078 L94.8665741,45.2115078 C95.1080846,45.2115078 95.331014,45.0648198 95.535369,44.7714396 C95.6654131,44.5697406 95.7304342,44.3680447 95.7304342,44.1663458 L95.7304342,38.9130315 C95.7304342,38.6196512 95.6282582,38.3766994 95.4239032,38.1841685 C95.2195482,37.9916377 95.0337737,37.8953738 94.8665741,37.8953738 L91.4947334,37.8953738 C91.3089562,37.8953738 91.1185373,37.9916377 90.9234712,38.1841685 C90.728405,38.3766994 90.6308734,38.6196512 90.6308734,38.9130315 L90.6308734,44.19385 C90.6308734,44.4872303 90.7423381,44.7439342 90.9652708,44.9639694 Z M102.083985,45.239012 L102.083985,37.812861 L102.111852,37.2077672 C102.223318,36.4193077 102.511269,35.759212 102.975712,35.2274603 C103.440155,34.6957085 104.034633,34.3564927 104.759165,34.2098025 L105.511559,34.1272897 L110.945517,34.1272897 L110.945517,28.5714286 L114.763221,28.5714286 L114.763221,44.9914737 C114.763221,45.7065881 114.6982,46.2704199 114.568156,46.6829859 C114.438112,47.0955519 114.205894,47.4760237 113.871494,47.8244128 C113.165541,48.594536 112.199513,48.9795918 110.973383,48.9795918 L105.567292,48.9795918 C104.861338,48.9795918 104.280793,48.8466559 103.825638,48.58078 C103.370484,48.3149041 102.947847,47.8610883 102.557715,47.219319 C102.241894,46.6508947 102.083985,45.990799 102.083985,45.239012 Z M110.973383,44.606414 L110.973383,38.7755102 C110.91765,38.4821299 110.806186,38.280434 110.638986,38.1704164 C110.397476,37.9870537 110.174546,37.8953738 109.970191,37.8953738 L107.044214,37.8953738 C106.728392,37.8953738 106.486885,37.9595498 106.319686,38.0879036 C106.152486,38.2162575 106.031733,38.4454574 105.957422,38.7755102 L105.929556,38.9405358 L105.929556,44.3313714 L105.985289,44.606414 C106.078177,44.8997943 106.301107,45.0923222 106.654083,45.1840035 L106.877015,45.2115078 L109.998058,45.2115078 L110.220989,45.1840035 C110.722588,45.1106585 110.973383,44.9181305 110.973383,44.606414 Z M117.4384,37.5928269 L117.522,36.8502118 C117.949287,35.0349213 119.16611,34.1272897 121.172505,34.1272897 L126.355665,34.1272897 L127.02446,34.1822983 C128.733611,34.4573423 129.699638,35.4291498 129.922571,37.0977502 L129.950437,37.7303482 L129.950437,40.7008086 L121.311837,43.9188074 L121.311837,44.1663458 C121.311837,44.4780623 121.381503,44.7301822 121.520836,44.922713 C121.660169,45.1152438 121.841299,45.2115078 122.064231,45.2115078 L129.922571,45.2115078 L129.922571,48.9795918 L121.534769,48.9795918 C120.903126,48.9795918 120.443334,48.9520878 120.155379,48.897079 C119.867425,48.8420702 119.57483,48.7320543 119.277586,48.5670279 C118.608788,48.2003025 118.135063,47.7556547 117.856397,47.2330711 C117.577731,46.7104875 117.4384,46.0091358 117.4384,45.128995 L117.4384,37.5928269 Z M126.077,38.8305187 L126.077,38.6929974 C126.00269,38.3812809 125.761183,38.188753 125.352473,38.1154079 L125.157408,38.0879036 L122.482228,38.0879036 L122.064231,38.1704164 C121.711255,38.2620978 121.469748,38.4271217 121.339704,38.6654932 L121.256104,39.0505528 L121.256104,40.5632873 L126.077,38.8305187 Z" id="Class’Code" fill="#FFFFFF"></path>
                <path d="M154.469388,48.9795918 L154.469388,28.7679308 L158.745032,28.7679308 L158.745032,48.9795918 L154.469388,48.9795918 Z M159.931179,48.9795918 L165.420555,31.2663167 C165.972254,29.4697156 167.094025,28.5714286 168.785901,28.5714286 C170.477778,28.5714286 171.590354,29.4697156 172.123663,31.2663167 L177.613039,48.9795918 L173.1443,48.9795918 L171.792645,44.6284704 L165.751573,44.6284704 L164.399917,48.9795918 L159.931179,48.9795918 Z M170.523744,40.5019229 L168.510053,33.9612048 L167.020474,40.5019229 L170.523744,40.5019229 Z M178.799185,48.9795918 L178.799185,28.7679308 L183.07483,28.7679308 L183.07483,48.9795918 L178.799185,48.9795918 Z" id="IAI" fill="#FFFFFF"></path>
            </g>
        </g>
    </g>
</svg>