<?xml version="1.0" encoding="UTF-8"?>
<svg width="139px" height="40px" viewBox="0 0 139 40" version="1.1" xmlns="http://www.w3.org/2000/svg" xmlns:xlink="http://www.w3.org/1999/xlink">
    <!-- Generator: Sketch 51.3 (57544) - http://www.bohemiancoding.com/sketch -->
    <title>Group 9</title>
    <desc>Created with Sketch.</desc>
    <defs>
        <filter x="-6.4%" y="-3.6%" width="112.9%" height="114.3%" filterUnits="objectBoundingBox" id="filter-1">
            <feOffset dx="0" dy="5" in="SourceAlpha" result="shadowOffsetOuter1"></feOffset>
            <feGaussianBlur stdDeviation="2" in="shadowOffsetOuter1" result="shadowBlurOuter1"></feGaussianBlur>
            <feColorMatrix values="0 0 0 0 0.482352941   0 0 0 0 0.482352941   0 0 0 0 0.482352941  0 0 0 0.3 0" type="matrix" in="shadowBlurOuter1" result="shadowMatrixOuter1"></feColorMatrix>
            <feMerge>
                <feMergeNode in="shadowMatrixOuter1"></feMergeNode>
                <feMergeNode in="SourceGraphic"></feMergeNode>
            </feMerge>
        </filter>
    </defs>
    <g id="Page-1" stroke="none" stroke-width="1" fill="none" fill-rule="evenodd">
        <g id="1_IAI_siteV2_XL" transform="translate(-150.000000, -198.000000)" fill="#F95230" fill-rule="nonzero">
            <g id="zone1" transform="translate(154.000000, 198.755145)">
                <g id="nav_gauche" filter="url(#filter-1)">
                    <g id="Se-questionner">
                        <g id="Group-9">
                            <rect id="Rectangle-7" x="0" y="0" width="115" height="30"></rect>
                            <path d="M130.300368,16.4996757 L115,30 L115,0 L130.300368,13.5003243 C131.128616,14.2311314 131.207607,15.4949952 130.4768,16.3232433 C130.421719,16.3856689 130.362793,16.4445943 130.300368,16.4996757 Z" id="Triangle"></path>
                        </g>
                    </g>
                </g>
            </g>
        </g>
    </g>
</svg>