<?xml version="1.0" encoding="UTF-8"?>
<svg width="30px" height="39px" viewBox="0 0 30 39" version="1.1" xmlns="http://www.w3.org/2000/svg" xmlns:xlink="http://www.w3.org/1999/xlink">
    <!-- Generator: Sketch 51.3 (57544) - http://www.bohemiancoding.com/sketch -->
    <title>Group 3</title>
    <desc>Created with Sketch.</desc>
    <defs>
        <polygon id="path-1" points="0 4.64285714e-05 29.7142857 4.64285714e-05 29.7142857 39 0 39"></polygon>
    </defs>
    <g id="Page-1" stroke="none" stroke-width="1" fill="none" fill-rule="evenodd">
        <g id="3_IAI_site-M" transform="translate(-101.000000, -1329.000000)">
            <g id="Group-3" transform="translate(101.000000, 1329.000000)">
                <mask id="mask-2" fill="white">
                    <use xlink:href="#path-1"></use>
                </mask>
                <g id="Clip-2"></g>
                <path d="M14.8571429,16.7143321 C15.3697143,16.7143321 15.7857143,17.1303321 15.7857143,17.6429036 L15.7857143,28.4082964 L18.8472143,25.3472607 C19.2098214,24.9841893 19.7901786,24.9841893 20.1527857,25.3472607 C20.5158571,25.7098679 20.5265357,26.2795464 20.1527857,26.6528321 C18.6150714,28.1608321 17.0931429,29.783975 15.5535714,31.2376536 C15.3831786,31.4372964 15.1398929,31.571475 14.8571429,31.571475 C14.5781071,31.571475 14.3311071,31.4465821 14.1607143,31.2520464 C12.6513214,29.7147964 11.0945714,28.1812607 9.5615,26.6528321 C9.19703571,26.2827964 9.18960714,25.7372607 9.5615,25.3472607 C9.91528571,24.9758321 10.5044643,24.9841893 10.8670714,25.3472607 L13.9285714,28.4082964 L13.9285714,17.6429036 C13.9285714,17.1303321 14.3445714,16.7143321 14.8571429,16.7143321 Z M20.4285714,2.13572464 L20.4285714,8.78576071 C20.4285714,9.06190309 20.6524291,9.28576071 20.9285714,9.28576071 L27.5786075,9.28576071 C27.8547499,9.28576071 28.0786075,9.06190309 28.0786075,8.78576071 C28.0786075,8.65315247 28.0259291,8.52597551 27.9321609,8.43220732 L21.2821248,1.78217125 C21.0868627,1.5869091 20.7702802,1.5869091 20.575018,1.78217125 C20.4812498,1.87593944 20.4285714,2.00311639 20.4285714,2.13572464 Z M0,3.00004643 L0,36.0000464 C2.02906125e-16,37.6569007 1.34314575,39.0000464 3,39.0000464 L26.7142857,39.0000464 C28.37114,39.0000464 29.7142857,37.6569007 29.7142857,36.0000464 L29.7142857,11.1429036 L19.5,11.1429036 C18.9874286,11.1429036 18.5714286,10.7269036 18.5714286,10.2143321 L18.5714286,3.00004643 C18.5714286,1.34319218 17.2282828,4.64285714e-05 15.5714286,4.64285714e-05 L3,4.64285714e-05 C1.34314575,4.64285714e-05 6.85272294e-16,1.34319218 8.8817842e-16,3.00004643 Z" id="Fill-1" fill="#4462CE" mask="url(#mask-2)"></path>
            </g>
        </g>
    </g>
</svg>